M48
;Layer_Color=9474304
;FILE_FORMAT=2:4
INCH,LZ
;TYPE=PLATED
T1F00S00C0.0260
T2F00S00C0.0280
T3F00S00C0.0354
T4F00S00C0.0390
T5F00S00C0.0594
%
T01
X012Y011189
Y013111
T02
X00635Y0073
X00615Y0127
X01135Y0061
T03
X00115Y0019
Y0029
Y0039
Y0049
X00505
Y0039
X00805
Y0049
X01905
Y0039
Y0029
Y0019
Y0059
Y0069
Y0079
Y0089
Y0112
Y0122
Y0132
Y0142
Y0152
Y0162
Y0172
Y0182
X0151Y01825
X0141
X0131
Y01925
X0141
X0151
X00805Y0169
Y0159
Y0149
Y0139
Y0129
Y0119
Y0109
Y0099
Y0089
Y0079
Y0069
Y0059
X00505
Y0069
Y0079
Y0089
Y0099
Y0109
Y0119
Y0129
Y0139
Y0149
Y0159
Y0169
X00115Y0172
Y0182
Y0162
Y0152
Y0142
Y0132
Y0122
Y0112
Y0089
Y0079
Y0069
Y0059
T04
X014464Y01077
X016236
Y01333
X014464
T05
X01325Y00095
X01425
X01525
M30
