%FSTAX23Y23*%
%MOIN*%
%SFA1B1*%

%IPPOS*%
%ADD16R,0.045300X0.053100*%
%ADD17R,0.047200X0.047200*%
%ADD18R,0.051200X0.055100*%
%ADD19R,0.025600X0.037400*%
%ADD20R,0.055100X0.051200*%
%ADD21R,0.060000X0.025600*%
%ADD35C,0.020000*%
%ADD36C,0.089200*%
%ADD37R,0.089200X0.089200*%
%ADD38C,0.043300*%
%ADD39C,0.059100*%
%ADD40R,0.059100X0.059100*%
%ADD41R,0.059100X0.059100*%
%ADD42C,0.050000*%
%LNpcb1-1*%
%LPD*%
G36*
X01965Y01984D02*
X01967Y01982D01*
Y01663*
X01962Y01661*
X01939Y01683*
X01935Y01687*
X01934Y01688*
X01934Y01692*
X01934Y01693*
X01939Y017*
X01943Y01709*
X01944Y01715*
X01905*
X01865*
X01866Y01709*
X0187Y017*
X01874Y01694*
X01872Y01689*
X01673*
X01548Y01815*
X01549Y01825*
X01549Y01829*
X01554Y01832*
X01565Y0182*
X01572Y01816*
X0158Y01814*
X0169*
X01699Y01805*
X01706Y01801*
X01714Y01799*
X0187*
X01876Y01791*
X01885Y01785*
X01894Y01781*
X01905Y0178*
X01915Y01781*
X01924Y01785*
X01933Y01791*
X01939Y018*
X01943Y01809*
X01944Y0182*
X01943Y0183*
X01939Y01839*
X01933Y01848*
X01924Y01854*
X01915Y01858*
X01905Y01859*
X01894Y01858*
X01885Y01854*
X01876Y01848*
X0187Y0184*
X01722*
X01713Y01849*
X01706Y01853*
X01699Y01855*
X01588*
X01553Y01889*
X01547Y01894*
X01543Y01895*
X01541Y019*
X01544Y01905*
X01548Y01914*
X01549Y0192*
X0147*
X01471Y01914*
X01475Y01905*
X01478Y019*
X01476Y01895*
X01443*
X01441Y019*
X01444Y01905*
X01448Y01914*
X01449Y01925*
X01448Y01935*
X01444Y01944*
X01438Y01953*
X01429Y01959*
X0142Y01963*
X0141Y01964*
X01399Y01963*
X0139Y01959*
X01381Y01953*
X01375Y01944*
X01371Y01935*
X0137Y01925*
X01371Y01914*
X01375Y01905*
X01378Y019*
X01376Y01895*
X01343*
X01341Y019*
X01344Y01905*
X01348Y01914*
X01349Y01925*
X01348Y01935*
X01344Y01944*
X01338Y01953*
X01329Y01959*
X0132Y01963*
X0131Y01964*
X01299Y01963*
X0129Y01959*
X01281Y01953*
X01275Y01945*
X0032*
X00312Y01943*
X00305Y01939*
X00159Y01793*
X00154Y01794*
Y01815*
X0012*
Y0178*
X0014*
X00142Y01775*
X00124Y01758*
X00115Y01759*
X00104Y01758*
X00095Y01754*
X00086Y01748*
X0008Y01739*
X00076Y0173*
X00075Y0172*
X00076Y01709*
X0008Y017*
X00086Y01691*
X00094Y01685*
Y01669*
X00096Y01661*
X00097Y01659*
X00096Y01654*
X00095Y01654*
X00086Y01648*
X0008Y01639*
X00076Y0163*
X00075Y0162*
X00076Y01609*
X0008Y016*
X00086Y01591*
X00095Y01585*
X00104Y01581*
X00115Y0158*
X00125Y01581*
X00134Y01585*
X00139Y01588*
X00144Y01586*
Y01553*
X00139Y01551*
X00134Y01554*
X00125Y01558*
X00115Y01559*
X00104Y01558*
X00095Y01554*
X00086Y01548*
X0008Y01539*
X00076Y0153*
X00075Y0152*
X00076Y01509*
X00078Y01505*
X00051Y01477*
X00046Y01471*
X00045Y01463*
Y01284*
X00046Y01276*
X00051Y0127*
X00066Y01255*
X00072Y0125*
X0008Y01249*
X00081*
X00083Y01244*
X0008Y01239*
X00076Y0123*
X00075Y01225*
X00115*
Y0122*
X0012*
Y0118*
X00125Y01181*
X00134Y01185*
X00139Y01188*
X00144Y01186*
Y01153*
X00139Y01151*
X00134Y01154*
X00125Y01158*
X00115Y01159*
X00104Y01158*
X00095Y01154*
X00086Y01148*
X0008Y01139*
X00076Y0113*
X00075Y0112*
X00076Y01109*
X0008Y011*
X00086Y01091*
X00094Y01085*
Y00998*
X0005Y00954*
X00046Y00947*
X00044Y0094*
Y00135*
X00046Y00127*
X0005Y0012*
X00057Y00116*
X00065Y00114*
X00186*
X00253Y00048*
X00259Y00043*
X0026Y00043*
X00263Y0004*
X00269Y00036*
X00274Y00035*
X00273Y0003*
X0003*
Y0199*
X01964*
X01965Y01984*
G37*
G36*
X01159Y01775D02*
X01157Y0177D01*
X00865*
X00861Y01774*
X00863Y01779*
X01154*
X01159Y01775*
G37*
G36*
X01379Y0185D02*
X01375Y01844D01*
X01371Y01835*
X0137Y01825*
X01371Y01814*
X01375Y01805*
X01381Y01796*
X01389Y0179*
Y01749*
X01385Y01747*
X01351Y01781*
X01349Y01785*
Y01855*
X01377*
X01379Y0185*
G37*
G36*
X00773Y01714D02*
X0077Y01709D01*
X00766Y017*
X00765Y0169*
X00766Y01679*
X0077Y0167*
X00776Y01661*
X00785Y01655*
X00794Y01651*
X00805Y0165*
X00815Y01651*
X00824Y01655*
X00833Y01661*
X00839Y01669*
X01137*
X01195Y01611*
X01202Y01606*
X0121Y01605*
X01257*
X01494Y01368*
X01501Y01363*
X01509Y01362*
X01584*
Y01338*
X01623*
Y01333*
X01628*
Y01293*
X01663*
Y01326*
X01667Y01328*
X01865Y0113*
Y01089*
X01862Y01089*
X01855Y01084*
X01789Y01018*
X01723Y01085*
Y0111*
X01722Y01117*
X01717Y01124*
X0167Y01171*
X01664Y01175*
X01656Y01177*
X01631*
X01485Y01323*
X01486Y01333*
X01484Y01343*
X0148Y01352*
X01474Y01361*
X01466Y01367*
X01456Y01371*
X01446Y01372*
X01436Y01371*
X01426Y01367*
X01418Y01361*
X01411Y01352*
X01407Y01343*
X01406Y01333*
X01407Y01322*
X01411Y01314*
X01406Y01311*
X01254Y01464*
X01247Y01468*
X0124Y0147*
X00953*
X00843Y0158*
X00844Y0159*
X00843Y016*
X00839Y01609*
X00833Y01618*
X00824Y01624*
X00815Y01628*
X00805Y01629*
X00794Y01628*
X00785Y01624*
X00776Y01618*
X0077Y01609*
X00766Y016*
X00765Y0159*
X00766Y01579*
X0077Y0157*
X00776Y01561*
X00785Y01555*
X00794Y01551*
X00805Y0155*
X00814Y01551*
X00921Y01445*
X00919Y0144*
X00883*
X00843Y0148*
X00844Y0149*
X00843Y015*
X00839Y01509*
X00833Y01518*
X00824Y01524*
X00815Y01528*
X00805Y01529*
X00794Y01528*
X00785Y01524*
X00776Y01518*
X0077Y01509*
X00766Y015*
X00765Y0149*
X00766Y01479*
X0077Y0147*
X00776Y01461*
X00785Y01455*
X00794Y01451*
X00805Y0145*
X00814Y01451*
X00851Y01415*
X00849Y0141*
X00839*
X00833Y01418*
X00824Y01424*
X00815Y01428*
X00805Y01429*
X00794Y01428*
X00785Y01424*
X00776Y01418*
X0077Y01409*
X00766Y014*
X00765Y0139*
X00766Y01379*
X0077Y0137*
X00776Y01361*
X00785Y01355*
X00794Y01351*
X00805Y0135*
X00815Y01351*
X00824Y01355*
X00833Y01361*
X00839Y01369*
X01196*
X01444Y01121*
X01442Y01116*
X01436Y01115*
X01314Y01237*
X01307Y01242*
X013Y01243*
X0085*
X00839Y01253*
X00835Y01257*
X00834Y01258*
X00834Y01262*
X00834Y01263*
X00839Y0127*
X00843Y01279*
X00844Y0129*
X00843Y013*
X00839Y01309*
X00833Y01318*
X00824Y01324*
X00815Y01328*
X00805Y01329*
X00794Y01328*
X00785Y01324*
X00776Y01318*
X0077Y01309*
X00766Y013*
X00765Y0129*
X00766Y01279*
X0077Y0127*
X00774Y01264*
X00774Y01264*
X00772Y01259*
X00766Y01258*
X0076Y01253*
X00755Y01247*
X00754Y01239*
Y01238*
X0073Y01213*
X00725Y01215*
Y0133*
X00723Y01337*
X00719Y01344*
X00684Y01379*
X00677Y01383*
X0067Y01385*
X00585*
X00577Y01383*
X0057Y01379*
X00529Y01338*
X00529Y01339*
X00525Y01341*
X00523Y01348*
X00522Y0135*
X00524Y01355*
X00524Y01355*
X00533Y01361*
X00539Y0137*
X00543Y01379*
X00544Y0139*
X00543Y014*
X00539Y01409*
X00533Y01418*
X00524Y01424*
X00515Y01428*
X00505Y01429*
X00495Y01428*
X00441Y01482*
Y01518*
X00446Y01519*
X00466Y01499*
X00465Y0149*
X00466Y01479*
X0047Y0147*
X00476Y01461*
X00485Y01455*
X00494Y01451*
X00505Y0145*
X00515Y01451*
X00524Y01455*
X00533Y01461*
X00539Y0147*
X00543Y01479*
X00544Y0149*
X00543Y015*
X00539Y01509*
X00533Y01518*
X00524Y01524*
X00515Y01528*
X00505Y01529*
X00495Y01528*
X0048Y01543*
Y01553*
X00484Y01555*
X00485Y01555*
X00494Y01551*
X00505Y0155*
X00515Y01551*
X00524Y01555*
X00533Y01561*
X00539Y0157*
X00543Y01579*
X00544Y0159*
X00543Y016*
X00539Y01609*
X00533Y01618*
X00524Y01624*
X00515Y01628*
X00505Y01629*
X00495Y01628*
X0048Y01643*
Y01653*
X00484Y01655*
X00485Y01655*
X00494Y01651*
X00505Y0165*
X00515Y01651*
X00524Y01655*
X00533Y01661*
X00539Y0167*
X00543Y01679*
X00544Y0169*
X00543Y01699*
X00563Y01719*
X00771*
X00773Y01714*
G37*
G36*
X01479Y0185D02*
X01475Y01844D01*
X01471Y01835*
X0147Y01825*
X01471Y01814*
X01475Y01805*
X01481Y01796*
X0149Y0179*
X01499Y01786*
X0151Y01785*
X01519Y01786*
X01651Y01655*
X01657Y0165*
X01665Y01649*
X01871*
X01873Y01644*
X0187Y0164*
X01492*
X0143Y01702*
Y0179*
X01438Y01796*
X01444Y01805*
X01448Y01814*
X01449Y01825*
X01448Y01835*
X01444Y01844*
X0144Y0185*
X01443Y01855*
X01477*
X01479Y0185*
G37*
G36*
X01876Y01591D02*
X01885Y01585D01*
X01894Y01581*
X01905Y0158*
X01915Y01581*
X01924Y01585*
X01929Y01588*
X01934Y01586*
Y01553*
X01929Y01551*
X01924Y01554*
X01915Y01558*
X01905Y01559*
X01894Y01558*
X01885Y01554*
X01876Y01548*
X0187Y0154*
X0155*
X01495Y01595*
X01497Y01599*
X0187*
X01876Y01591*
G37*
G36*
Y01491D02*
X01885Y01485D01*
X01894Y01481*
X01905Y0148*
X01915Y01481*
X01924Y01485*
X01929Y01488*
X01934Y01486*
Y01453*
X01929Y01451*
X01924Y01454*
X01915Y01458*
X01905Y01459*
X01894Y01458*
X01885Y01454*
X01876Y01448*
X0187Y0144*
X01759*
X01713Y01486*
X01706Y01491*
X01698Y01492*
X01557*
X01556Y01494*
X01558Y01499*
X0187*
X01876Y01491*
G37*
G36*
X00405Y01261D02*
Y01257D01*
X00406Y01249*
X00411Y01242*
X00457Y01196*
X00464Y01191*
X00465Y01191*
X00465Y0119*
X00466Y01179*
X0047Y0117*
X00476Y01161*
X00485Y01155*
X00494Y01151*
X00505Y0115*
X00515Y01151*
X00524Y01155*
X00529Y01158*
X00534Y01156*
Y01148*
X00514Y01128*
X00505Y01129*
X00494Y01128*
X00485Y01124*
X00476Y01118*
X0047Y01109*
X00466Y011*
X00465Y0109*
X00466Y01079*
X0047Y0107*
X00476Y01061*
X00485Y01055*
X00494Y01051*
X00505Y0105*
X00515Y01051*
X00524Y01055*
X00533Y01061*
X00539Y0107*
X00543Y01079*
X00544Y0109*
X00543Y01099*
X00568Y01125*
X00573Y01131*
X00574Y01139*
Y0121*
X00573Y01218*
X00568Y01224*
X00541Y01252*
X00539Y01255*
X00541Y01259*
X00543Y01262*
X00544Y0127*
Y01296*
X00593Y01344*
X00661*
X00684Y01321*
Y0121*
X0067Y01196*
X00666Y0119*
X00664Y01182*
Y00756*
X00662Y00755*
X00659Y00755*
X00652Y0076*
X00644Y00764*
X0064Y00764*
Y0073*
Y00695*
X00644Y00695*
X00652Y00699*
X00659Y00704*
X00662Y00704*
X00664Y00703*
Y00408*
X00666Y004*
X0067Y00393*
X00684Y00379*
Y00305*
X00686Y00297*
X0069Y0029*
X007Y0028*
X00707Y00276*
X00715Y00274*
X00805*
X00812Y00276*
X00819Y0028*
X00862Y00323*
X00867Y00321*
Y00258*
X00862Y00256*
X00798*
X00797*
X00793*
X00792*
X00728*
Y0024*
X0058*
Y00253*
X00512*
Y00186*
X0058*
Y00199*
X00728*
Y00183*
X00792*
X00793*
X00797*
X00798*
X00862*
Y00199*
X0087*
X00877Y00201*
X00884Y00205*
X00901Y00223*
X00906Y00229*
X00907Y00237*
Y00326*
X00932Y00351*
X00932Y00351*
X00938Y00354*
X00943Y00352*
Y00347*
X01023*
Y00366*
X0105*
X01057Y00368*
X01064Y00372*
X01068Y00379*
X0107Y00387*
Y00524*
X01068Y00532*
X01064Y00538*
X01036Y00567*
X01029Y00571*
X01021Y00573*
X00932*
X00924Y00571*
X00918Y00567*
X0088Y00529*
X00876Y00523*
X00874Y00515*
Y00493*
X00843Y00462*
X00839Y00462*
X00837Y00467*
X00839Y0047*
X00843Y00479*
X00844Y0049*
X00843Y005*
X00839Y00509*
X00834Y00516*
X00834Y00517*
X00834Y00521*
X00835Y00522*
X00839Y00526*
X00868Y00555*
X00873Y00561*
X00874Y00569*
Y00616*
X00933Y00674*
X00979*
Y00645*
X00981Y00637*
X00985Y00631*
X01144Y00472*
X0115Y00468*
X01156Y00467*
Y00447*
Y00442*
Y00397*
Y00392*
Y00387*
X01151Y00384*
X0113Y00363*
X01126Y00356*
X01124Y00348*
Y0032*
X00964Y0016*
X00862*
Y00176*
X00796*
X00793*
X00727*
Y0016*
X0058*
Y00173*
X00512*
Y00113*
X00497*
Y00135*
X00463*
X0043*
Y00106*
X00425Y00105*
X00298*
X00245Y00158*
Y00244*
X0043*
Y00225*
X00463*
X00497*
Y00249*
X00499Y0025*
X00599Y0035*
X00603Y00357*
X00605Y00365*
Y00703*
X00607Y00704*
X0061Y00704*
X00617Y00699*
X00625Y00695*
X0063Y00695*
Y0073*
Y00764*
X00625Y00764*
X00617Y0076*
X0061Y00755*
X00607Y00755*
X00605Y00756*
Y0094*
X00603Y00947*
X00599Y00954*
X00592Y00958*
X00585Y0096*
X00538*
X00535Y00965*
X00539Y0097*
X00543Y00979*
X00544Y00985*
X00505*
X00465*
X00466Y00979*
X0047Y0097*
X00474Y00965*
X00471Y0096*
X00208*
X00184Y00983*
Y0124*
X00183Y01248*
X00178Y01254*
X00149Y01283*
X00145Y01287*
X00144Y01288*
X00144Y01292*
X00144Y01293*
X00149Y013*
X00153Y01309*
X00154Y01315*
X00115*
Y0132*
X0011*
Y01359*
X00104Y01358*
X00095Y01354*
X0009Y01351*
X00085Y01353*
Y01386*
X0009Y01388*
X00095Y01385*
X00104Y01381*
X00115Y0138*
X00125Y01381*
X00134Y01385*
X00143Y01391*
X00149Y01399*
X00266*
X00405Y01261*
G37*
G36*
X01876Y01391D02*
X01885Y01385D01*
X01894Y01381*
X01905Y0138*
X01915Y01381*
X01924Y01385*
X01929Y01388*
X01934Y01386*
Y01353*
X01929Y01351*
X01924Y01354*
X01915Y01358*
X01905Y01359*
X01894Y01358*
X01885Y01354*
X01876Y01348*
X0187Y0134*
X018*
X01753Y01386*
Y01395*
Y01395*
X01756Y01399*
X0187*
X01876Y01391*
G37*
G36*
X00446Y01899D02*
X00321Y01774D01*
X00316Y01768*
X00315Y0176*
Y01447*
X00316Y01439*
X00321Y01432*
X00435Y01318*
Y01295*
X0043Y01293*
X00289Y01434*
X00282Y01438*
X00275Y0144*
X00149*
X00144Y01446*
X00144Y01447*
X00144Y01451*
X00145Y01452*
X00149Y01456*
X00178Y01485*
X00183Y01491*
X00184Y01499*
Y0164*
X00183Y01648*
X00178Y01654*
X00149Y01683*
X00145Y01687*
X00144Y01688*
X00144Y01692*
X00144Y01693*
X00149Y017*
X00153Y01709*
X00154Y0172*
X00153Y01729*
X00328Y01904*
X00443*
X00446Y01899*
G37*
G36*
X01876Y01291D02*
X01885Y01285D01*
X01894Y01281*
X01905Y0128*
X01915Y01281*
X01924Y01285*
X01929Y01288*
X01934Y01286*
Y01253*
X01929Y01251*
X01924Y01254*
X01915Y01258*
X01905Y01259*
X01894Y01258*
X01885Y01254*
X01876Y01248*
X0187Y0124*
X01857*
X01802Y01295*
X01804Y01299*
X0187*
X01876Y01291*
G37*
G36*
X01407Y01086D02*
X01406Y01077D01*
X01407Y01067*
X0139Y01049*
X01385Y01042*
X01384Y01035*
Y00926*
X01371*
X01368*
X01302*
Y0091*
X00913*
X00843Y0098*
X00844Y0099*
X00843Y01*
X00839Y01009*
X00833Y01018*
X00824Y01024*
X00815Y01028*
X00805Y01029*
X00794Y01028*
X00785Y01024*
X00776Y01018*
X0077Y01009*
X00766Y01*
X00765Y0099*
X00766Y00979*
X0077Y0097*
X00775Y00963*
X00775Y00962*
X00775Y00958*
X00774Y00957*
X0077Y00953*
X00741Y00924*
X0074Y00923*
X00735Y00925*
Y01161*
X0076Y01186*
X00765Y01184*
X00766Y01179*
X0077Y0117*
X00776Y01161*
X00785Y01155*
X00794Y01151*
X00805Y0115*
X00815Y01151*
X00824Y01155*
X00833Y01161*
X00839Y0117*
X00843Y01179*
X00844Y0119*
X00843Y01198*
X00847Y01203*
X01291*
X01407Y01086*
G37*
G36*
X01436Y01294D02*
X01446Y01293D01*
X01456Y01294*
X01598Y01151*
X01597Y01147*
X01571*
X01425Y01293*
X01428Y01297*
X01436Y01294*
G37*
G36*
X01628Y01037D02*
X01633Y01038D01*
X01643Y01042*
X01651Y01048*
X01652Y0105*
X01658Y0105*
X01658Y01049*
X01833Y00875*
X01839Y00871*
X01847Y00869*
X0187*
X01876Y00861*
X01885Y00855*
X01894Y00851*
X01905Y0085*
X01915Y00851*
X01924Y00855*
X01933Y00861*
X01939Y0087*
X01943Y00879*
X01944Y0089*
X01943Y009*
X01939Y00909*
X01933Y00918*
X01924Y00924*
X01915Y00928*
X01905Y00929*
X01894Y00928*
X01885Y00924*
X01876Y00918*
X0187Y0091*
X01855*
X01799Y00966*
X018Y00973*
X01804Y00975*
X01878Y0105*
X01942*
X0195Y01051*
X01957Y01056*
X01962Y01061*
X01967Y01059*
Y0003*
X01154*
X01153Y00035*
X01153Y00035*
X01157Y00042*
X01159Y0005*
Y00057*
X01192*
Y00074*
X0127*
Y0004*
X01379*
Y00056*
X01384Y00058*
X01386Y00056*
X01397Y00047*
X0141Y00041*
X0142Y0004*
Y00095*
Y00149*
X0141Y00148*
X01397Y00142*
X01386Y00133*
X01384Y00131*
X01379Y00133*
Y00149*
X0127*
Y00115*
X01192*
Y00132*
X01098*
Y00095*
X01093*
Y0009*
X01057*
Y00071*
X01057Y0007*
X01029*
X01022Y00077*
X01018Y0008*
X01017Y00086*
X01031Y001*
X01035Y00107*
X01037Y00115*
Y00133*
X01213Y00309*
X0127*
X01277Y00311*
X01284Y00315*
X01288Y00322*
X0129Y0033*
Y00386*
X0137Y00467*
X01373Y00467*
X0138Y00472*
X01446Y00538*
X01447Y00538*
X01452Y00535*
Y00533*
Y00514*
X0147*
Y00538*
X01457*
X01454*
X01452Y00538*
X01449Y00542*
X01451Y00545*
X01452Y00552*
Y00571*
X0146*
Y00629*
X01414*
Y00615*
X01367*
Y0063*
X01292*
Y00559*
Y00537*
X0133*
Y00532*
X01335*
Y00496*
X01336*
X01338Y00491*
X01255Y00409*
X01251Y00402*
X01249Y00395*
Y0035*
X01236*
Y00392*
Y00397*
Y00442*
Y00447*
Y00492*
Y00492*
Y00497*
Y00515*
X01196*
Y0052*
X01191*
Y00542*
X01156*
Y00524*
X01152Y00522*
X0102Y00654*
Y00674*
X01546*
X01775Y00446*
Y00444*
X01776Y00436*
X01781Y0043*
X01805Y00406*
Y00357*
X01806Y00349*
X01811Y00342*
X01836Y00317*
X01835Y0031*
Y00269*
X01836Y00261*
X01841Y00255*
X01862Y00233*
X01865Y00229*
Y0015*
X01944*
Y00229*
X01925*
Y0024*
X01923Y00248*
X01922Y0025*
X01924Y00255*
X01924Y00255*
X01933Y00261*
X01939Y0027*
X01943Y00279*
X01944Y0029*
X01943Y003*
X01939Y00309*
X01933Y00318*
X01925Y00324*
Y0034*
X01923Y00348*
X01922Y0035*
X01924Y00355*
X01924Y00355*
X01933Y00361*
X01939Y0037*
X01943Y00379*
X01944Y0039*
X01943Y004*
X01939Y00409*
X01933Y00418*
X01925Y00424*
Y0043*
X01923Y00437*
X01919Y00444*
X01917Y00446*
X01918Y00452*
X01924Y00455*
X01933Y00461*
X01939Y0047*
X01943Y00479*
X01944Y0049*
X01943Y005*
X01939Y00509*
X01933Y00518*
X01924Y00524*
X01915Y00528*
X01905Y00529*
X01895Y00528*
X01858Y00565*
X0186Y00569*
X0187*
X01876Y00561*
X01885Y00555*
X01894Y00551*
X01905Y0055*
X01915Y00551*
X01924Y00555*
X01933Y00561*
X01939Y0057*
X01943Y00579*
X01944Y0059*
X01943Y006*
X01939Y00609*
X01933Y00618*
X01924Y00624*
X01915Y00628*
X01905Y00629*
X01894Y00628*
X01885Y00624*
X01876Y00618*
X0187Y0061*
X01855*
X01801Y00665*
X01803Y00669*
X0187*
X01876Y00661*
X01885Y00655*
X01894Y00651*
X01905Y0065*
X01915Y00651*
X01924Y00655*
X01933Y00661*
X01939Y0067*
X01943Y00679*
X01944Y0069*
X01943Y007*
X01939Y00709*
X01933Y00718*
X01924Y00724*
X01915Y00728*
X01905Y00729*
X01894Y00728*
X01885Y00724*
X01876Y00718*
X0187Y0071*
X01798*
X01768Y0074*
X0177Y00744*
X0188*
X01887Y00746*
X01894Y0075*
X01895Y00751*
X01905Y0075*
X01915Y00751*
X01924Y00755*
X01933Y00761*
X01939Y0077*
X01943Y00779*
X01944Y0079*
X01943Y008*
X01939Y00809*
X01933Y00818*
X01924Y00824*
X01915Y00828*
X01905Y00829*
X01894Y00828*
X01885Y00824*
X01876Y00818*
X0187Y00809*
X01866Y008*
X01865Y0079*
X01865Y00789*
X01861Y00785*
X01765*
X01656Y00894*
X0165Y00898*
X01642Y009*
X01594*
Y01043*
X01599Y01045*
X01603Y01042*
X01613Y01038*
X01618Y01037*
Y01077*
X01628*
Y01037*
G37*
G36*
X01523Y01042D02*
Y0085D01*
X01524Y00845*
X01521Y0084*
X00883*
X00843Y0088*
X00844Y0089*
X00843Y009*
X00839Y00909*
X00833Y00918*
X00824Y00924*
X00824Y00924*
X00822Y00929*
X00823Y00931*
X00824Y00934*
X00829Y00936*
X0089Y00875*
X00897Y00871*
X00905Y00869*
X01302*
Y00853*
X01368*
X01371*
X01437*
Y00926*
X01424*
Y01026*
X01436Y01038*
X01446Y01037*
X01456Y01038*
X01466Y01042*
X01474Y01048*
X0148Y01057*
X01484Y01066*
X01485Y01073*
X01491Y01075*
X01523Y01042*
G37*
G36*
X00144Y01086D02*
Y00975D01*
X00145Y00967*
X0015Y00961*
X00185Y00925*
X00192Y00921*
X002Y00919*
X00471*
X00474Y00914*
X0047Y0091*
X00154*
Y00929*
X0009*
X00088Y00934*
X00129Y00975*
X00133Y00982*
X00135Y0099*
Y01085*
X00139Y01088*
X00144Y01086*
G37*
G36*
X00564Y00373D02*
X00476Y00285D01*
X00235*
X00227Y00283*
X0022Y00279*
X0021Y00269*
X00206Y00262*
X00204Y00255*
Y00158*
X00199Y00154*
X00195Y00155*
X00143*
X00141Y0016*
X00143Y00161*
X00149Y0017*
X00153Y00179*
X00154Y0019*
X00153Y002*
X00149Y00209*
X00143Y00218*
X00134Y00224*
X00125Y00228*
X00115Y00229*
X00104Y00228*
X00095Y00224*
X0009Y0022*
X00085Y00223*
Y00256*
X0009Y00259*
X00095Y00255*
X00104Y00251*
X00115Y0025*
X00125Y00251*
X00134Y00255*
X00143Y00261*
X00149Y0027*
X00153Y00279*
X00154Y0029*
X00153Y003*
X00149Y00309*
X00143Y00318*
X00134Y00324*
X00125Y00328*
X00115Y00329*
X00104Y00328*
X00095Y00324*
X0009Y0032*
X00085Y00323*
Y00356*
X0009Y00359*
X00095Y00355*
X00104Y00351*
X00115Y0035*
X00125Y00351*
X00134Y00355*
X00143Y00361*
X00149Y00369*
X0047*
X00476Y00361*
X00485Y00355*
X00494Y00351*
X00505Y0035*
X00515Y00351*
X00524Y00355*
X00533Y00361*
X00539Y0037*
X00543Y00379*
X00544Y0039*
X00543Y004*
X00539Y00409*
X00533Y00418*
X00524Y00424*
X00515Y00428*
X00505Y00429*
X00494Y00428*
X00485Y00424*
X00476Y00418*
X0047Y0041*
X00149*
X00143Y00418*
X00134Y00424*
X00125Y00428*
X00115Y00429*
X00104Y00428*
X00095Y00424*
X0009Y0042*
X00085Y00423*
Y00456*
X0009Y00459*
X00095Y00455*
X00104Y00451*
X00115Y0045*
X00125Y00451*
X00134Y00455*
X00143Y00461*
X00149Y00469*
X0047*
X00476Y00461*
X00485Y00455*
X00494Y00451*
X00505Y0045*
X00515Y00451*
X00524Y00455*
X00533Y00461*
X00539Y0047*
X00543Y00479*
X00544Y0049*
X00543Y005*
X00539Y00509*
X00533Y00518*
X00524Y00524*
X00515Y00528*
X00505Y00529*
X00494Y00528*
X00485Y00524*
X00476Y00518*
X0047Y0051*
X00149*
X00143Y00518*
X00134Y00524*
X00125Y00528*
X00115Y00529*
X00104Y00528*
X00095Y00524*
X0009Y0052*
X00085Y00523*
Y00556*
X0009Y00559*
X00095Y00555*
X00104Y00551*
X00115Y0055*
X00125Y00551*
X00134Y00555*
X00143Y00561*
X00149Y00569*
X0047*
X00476Y00561*
X00485Y00555*
X00494Y00551*
X00505Y0055*
X00515Y00551*
X00524Y00555*
X00533Y00561*
X00539Y0057*
X00543Y00579*
X00544Y0059*
X00543Y006*
X00539Y00609*
X00533Y00618*
X00524Y00624*
X00515Y00628*
X00505Y00629*
X00494Y00628*
X00485Y00624*
X00476Y00618*
X0047Y0061*
X00149*
X00143Y00618*
X00134Y00624*
X00125Y00628*
X00115Y00629*
X00104Y00628*
X00095Y00624*
X0009Y0062*
X00085Y00623*
Y00656*
X0009Y00659*
X00095Y00655*
X00104Y00651*
X00115Y0065*
X00125Y00651*
X00134Y00655*
X00143Y00661*
X00149Y00669*
X0047*
X00476Y00661*
X00485Y00655*
X00494Y00651*
X00505Y0065*
X00515Y00651*
X00524Y00655*
X00533Y00661*
X00539Y0067*
X00543Y00679*
X00544Y0069*
X00543Y007*
X00539Y00709*
X00533Y00718*
X00524Y00724*
X00515Y00728*
X00505Y00729*
X00494Y00728*
X00485Y00724*
X00476Y00718*
X0047Y0071*
X00149*
X00143Y00718*
X00134Y00724*
X00125Y00728*
X00115Y00729*
X00104Y00728*
X00095Y00724*
X0009Y0072*
X00085Y00723*
Y00756*
X0009Y00759*
X00095Y00755*
X00104Y00751*
X00115Y0075*
X00125Y00751*
X00134Y00755*
X00143Y00761*
X00149Y00769*
X0047*
X00476Y00761*
X00485Y00755*
X00494Y00751*
X00505Y0075*
X00515Y00751*
X00524Y00755*
X00533Y00761*
X00539Y0077*
X00543Y00779*
X00544Y0079*
X00543Y008*
X00539Y00809*
X00533Y00818*
X00524Y00824*
X00515Y00828*
X00505Y00829*
X00494Y00828*
X00485Y00824*
X00476Y00818*
X0047Y0081*
X00149*
X00143Y00818*
X00134Y00824*
X00125Y00828*
X00115Y00829*
X00104Y00828*
X00095Y00824*
X0009Y0082*
X00085Y00823*
Y0085*
X00154*
Y00869*
X0047*
X00476Y00861*
X00485Y00855*
X00494Y00851*
X00505Y0085*
X00515Y00851*
X00524Y00855*
X00533Y00861*
X00539Y0087*
X00543Y00879*
X00544Y0089*
X00543Y009*
X00539Y00909*
X00535Y00914*
X00538Y00919*
X00564*
Y00373*
G37*
G36*
X00757Y00396D02*
X00764Y00391D01*
X00765Y00391*
Y0035*
X00825*
X00827Y00345*
X00796Y00315*
X00725*
Y00388*
X00724Y00395*
X00726Y004*
X00753*
X00757Y00396*
G37*
G36*
X01006Y00035D02*
X01007Y00035D01*
X01005Y0003*
X00471*
X0047Y00035*
X00475Y00036*
X00481Y0004*
X00484Y00043*
X00999*
X01006Y00035*
G37*
%LNpcb1-2*%
%LPC*%
G36*
X01515Y01964D02*
Y0193D01*
X01549*
X01548Y01935*
X01544Y01944*
X01538Y01953*
X01529Y01959*
X0152Y01963*
X01515Y01964*
G37*
G36*
X01505D02*
X01499Y01963D01*
X0149Y01959*
X01481Y01953*
X01475Y01944*
X01471Y01935*
X0147Y0193*
X01505*
Y01964*
G37*
G36*
X00154Y01859D02*
X0012D01*
Y01825*
X00154*
Y01859*
G37*
G36*
X0011D02*
X00075D01*
Y01825*
X0011*
Y01859*
G37*
G36*
Y01815D02*
X00075D01*
Y0178*
X0011*
Y01815*
G37*
G36*
X0191Y01759D02*
Y01725D01*
X01944*
X01943Y0173*
X01939Y01739*
X01933Y01748*
X01924Y01754*
X01915Y01758*
X0191Y01759*
G37*
G36*
X019D02*
X01894Y01758D01*
X01885Y01754*
X01876Y01748*
X0187Y01739*
X01866Y0173*
X01865Y01725*
X019*
Y01759*
G37*
G36*
X0011Y01215D02*
X00075D01*
X00076Y01209*
X0008Y012*
X00086Y01191*
X00095Y01185*
X00104Y01181*
X0011Y0118*
Y01215*
G37*
G36*
X01618Y01328D02*
X01584D01*
Y01293*
X01618*
Y01328*
G37*
G36*
X012Y01343D02*
X01191Y01341D01*
X01184Y01338*
X01177Y01333*
X01172Y01327*
X01169Y01319*
X01168Y01311*
X01169Y01302*
X01172Y01295*
X01177Y01288*
X01184Y01283*
X01191Y0128*
X012Y01279*
X01208Y0128*
X01216Y01283*
X01222Y01288*
X01227Y01295*
X0123Y01302*
X01231Y01311*
X0123Y01319*
X01227Y01327*
X01222Y01333*
X01216Y01338*
X01208Y01341*
X012Y01343*
G37*
G36*
X0012Y01359D02*
Y01325D01*
X00154*
X00153Y0133*
X00149Y01339*
X00143Y01348*
X00134Y01354*
X00125Y01358*
X0012Y01359*
G37*
G36*
X0062Y01304D02*
Y01275D01*
X00649*
X00649Y01279*
X00645Y01287*
X0064Y01295*
X00632Y013*
X00624Y01304*
X0062Y01304*
G37*
G36*
X0061D02*
X00605Y01304D01*
X00597Y013*
X0059Y01295*
X00584Y01287*
X0058Y01279*
X0058Y01275*
X0061*
Y01304*
G37*
G36*
X00649Y01265D02*
X0062D01*
Y01235*
X00624Y01235*
X00632Y01239*
X0064Y01245*
X00645Y01252*
X00649Y0126*
X00649Y01265*
G37*
G36*
X0061D02*
X0058D01*
X0058Y0126*
X00584Y01252*
X0059Y01245*
X00597Y01239*
X00605Y01235*
X0061Y01235*
Y01265*
G37*
G36*
X0051Y01029D02*
Y00995D01*
X00544*
X00543Y01*
X00539Y01009*
X00533Y01018*
X00524Y01024*
X00515Y01028*
X0051Y01029*
G37*
G36*
X005D02*
X00494Y01028D01*
X00485Y01024*
X00476Y01018*
X0047Y01009*
X00466Y01*
X00465Y00995*
X005*
Y01029*
G37*
G36*
X00497Y00215D02*
X00468D01*
Y00186*
X00497*
Y00215*
G37*
G36*
X00458D02*
X0043D01*
Y00186*
X00458*
Y00215*
G37*
G36*
X00497Y00173D02*
X00468D01*
Y00145*
X00497*
Y00173*
G37*
G36*
X00458D02*
X0043D01*
Y00145*
X00458*
Y00173*
G37*
G36*
X0081Y01129D02*
Y01095D01*
X00844*
X00843Y011*
X00839Y01109*
X00833Y01118*
X00824Y01124*
X00815Y01128*
X0081Y01129*
G37*
G36*
X008D02*
X00794Y01128D01*
X00785Y01124*
X00776Y01118*
X0077Y01109*
X00766Y011*
X00765Y01095*
X008*
Y01129*
G37*
G36*
X012Y0115D02*
X01191Y01149D01*
X01184Y01146*
X01177Y01141*
X01172Y01134*
X01169Y01127*
X01168Y01118*
X01169Y0111*
X01172Y01103*
X01177Y01096*
X01184Y01091*
X01191Y01088*
X012Y01087*
X01208Y01088*
X01216Y01091*
X01222Y01096*
X01227Y01103*
X0123Y0111*
X01231Y01118*
X0123Y01127*
X01227Y01134*
X01222Y01141*
X01216Y01146*
X01208Y01149*
X012Y0115*
G37*
G36*
X00844Y01085D02*
X0081D01*
Y0105*
X00815Y01051*
X00824Y01055*
X00833Y01061*
X00839Y0107*
X00843Y01079*
X00844Y01085*
G37*
G36*
X008D02*
X00765D01*
X00766Y01079*
X0077Y0107*
X00776Y01061*
X00785Y01055*
X00794Y01051*
X008Y0105*
Y01085*
G37*
G36*
X0114Y00644D02*
Y00615D01*
X01169*
X01169Y00619*
X01165Y00627*
X0116Y00635*
X01152Y0064*
X01144Y00644*
X0114Y00644*
G37*
G36*
X0113D02*
X01125Y00644D01*
X01117Y0064*
X0111Y00635*
X01104Y00627*
X011Y00619*
X011Y00615*
X0113*
Y00644*
G37*
G36*
X01169Y00605D02*
X0114D01*
Y00575*
X01144Y00575*
X01152Y00579*
X0116Y00585*
X01165Y00592*
X01169Y006*
X01169Y00605*
G37*
G36*
X0113D02*
X011D01*
X011Y006*
X01104Y00592*
X0111Y00585*
X01117Y00579*
X01125Y00575*
X0113Y00575*
Y00605*
G37*
G36*
X01236Y00542D02*
X01201D01*
Y00525*
X01236*
Y00542*
G37*
G36*
X0148Y00538D02*
Y00514D01*
X01497*
Y00538*
X0148*
G37*
G36*
X01325Y00527D02*
X01292D01*
Y00496*
X01325*
Y00527*
G37*
G36*
X01497Y00504D02*
X0148D01*
Y00481*
X01497*
Y00504*
G37*
G36*
X0147D02*
X01452D01*
Y00481*
X0147*
Y00504*
G37*
G36*
X01515Y00448D02*
X01486D01*
Y0042*
X01515*
Y00448*
G37*
G36*
X01476D02*
X01447D01*
Y0042*
X01476*
Y00448*
G37*
G36*
X01535Y00629D02*
X01489D01*
Y00571*
X01512*
X01574Y00509*
Y00437*
X01557*
Y00404*
X01531*
X01523Y00402*
X0152Y004*
X01515Y00403*
Y0041*
X01486*
Y00381*
X01508*
Y00371*
X01445*
X01444*
X0144*
X01439*
X01428*
Y00381*
X01432*
Y00448*
X01365*
Y00381*
X01387*
Y00371*
X01375*
Y00298*
X01439*
X0144*
X01444*
X01445*
X01509*
Y00314*
X01528*
X01536Y00316*
X01542Y0032*
X01547Y00327*
X01548Y00335*
Y00363*
X01557*
Y00343*
X01595*
Y00338*
X016*
Y00302*
X01616*
X01618Y00297*
X0161Y00289*
X01606Y00283*
X01604Y00275*
Y00203*
X01546Y00145*
X01539Y00148*
X01525Y0015*
X0151Y00148*
X01497Y00142*
X01486Y00133*
X01477Y00123*
X01475Y00122*
X01472Y00123*
X01463Y00133*
X01452Y00142*
X01439Y00148*
X0143Y00149*
Y00095*
Y0004*
X01439Y00041*
X01452Y00047*
X01463Y00056*
X01472Y00066*
X01475Y00067*
X01477Y00066*
X01486Y00056*
X01497Y00047*
X0151Y00041*
X01525Y00039*
X01539Y00041*
X01552Y00047*
X01563Y00056*
X01572Y00067*
X01575Y00074*
X01699*
Y00057*
X01792*
Y00095*
Y00132*
X01699*
Y00115*
X01581*
X01579Y0012*
X01639Y0018*
X01643Y00187*
X01645Y00195*
Y00266*
X01657Y00278*
X01661Y00285*
X01663Y00292*
Y00372*
X01661Y0038*
X01657Y00386*
X01645Y00398*
X01638Y00402*
X01632Y00404*
Y00437*
X01615*
Y00517*
X01613Y00525*
X01609Y00532*
X01535Y00606*
Y00629*
G37*
G36*
X01476Y0041D02*
X01447D01*
Y00381*
X01476*
Y0041*
G37*
G36*
X0159Y00333D02*
X01557D01*
Y00302*
X0159*
Y00333*
G37*
G36*
X01833Y00132D02*
X01802D01*
Y001*
X01833*
Y00132*
G37*
G36*
X01088D02*
X01057D01*
Y001*
X01088*
Y00132*
G37*
G36*
X01833Y0009D02*
X01802D01*
Y00057*
X01833*
Y0009*
G37*
%LNpcb1-3*%
%LPD*%
G54D16*
X01477Y00335D03*
X01408D03*
X01404Y0089D03*
X01335D03*
X0083Y0022D03*
X00761D03*
X00829Y0014D03*
X0076D03*
G54D17*
X01398Y00415D03*
X01481D03*
X00546Y0014D03*
X00463D03*
X00546Y0022D03*
X00463D03*
G54D18*
X01797Y00095D03*
X01734D03*
X01156D03*
X01093D03*
G54D19*
X01512Y006D03*
X01437D03*
X01475Y00509D03*
G54D20*
X0133Y00595D03*
Y00532D03*
X01595Y00401D03*
Y00338D03*
G54D21*
X00983Y0037D03*
Y0042D03*
Y0047D03*
Y0052D03*
X01196D03*
Y0047D03*
Y0042D03*
Y0037D03*
G54D35*
X01021Y0005D02*
X01057D01*
X01007Y00063D02*
X01021Y0005D01*
X00475Y00063D02*
X01007D01*
X00467Y00055D02*
X00475Y00063D01*
X00277Y00055D02*
X00467D01*
X0027Y00062D02*
X00277Y00055D01*
X00463Y00093D02*
X00995D01*
X00455Y00085D02*
X00463Y00093D01*
X00267Y00062D02*
X0027D01*
X00195Y00135D02*
X00267Y00062D01*
X00065Y00135D02*
X00195D01*
X00225Y0015D02*
Y00255D01*
Y0015D02*
X0029Y00085D01*
X00455*
X00995Y00093D02*
X01017Y00115D01*
X00102Y015D02*
X00115D01*
X0087Y0022D02*
X00887Y00237D01*
X0083Y0022D02*
X0087D01*
X00829Y0014D02*
X00972D01*
X00824D02*
X00829D01*
X01139Y00077D02*
X01156Y00095D01*
X01139Y0005D02*
Y00077D01*
X01129Y0005D02*
X01139D01*
X01127Y00047D02*
X01129Y0005D01*
X01059Y00047D02*
X01127D01*
X01057Y0005D02*
X01059Y00047D01*
X01432Y00552D02*
Y00595D01*
X01365Y00486D02*
X01432Y00552D01*
X01361Y00486D02*
X01365D01*
X0127Y00395D02*
X01361Y00486D01*
X0127Y0033D02*
Y00395D01*
X01577Y00384D02*
X01595Y00401D01*
X01531Y00384D02*
X01577D01*
X01528Y00381D02*
X01531Y00384D01*
X01528Y00335D02*
Y00381D01*
X01477Y00335D02*
X01528D01*
X01396Y00415D02*
X01408Y00402D01*
Y00335D02*
Y00402D01*
X01393Y00412D02*
X01396Y00415D01*
X0133Y00595D02*
X01432D01*
X0147Y00509D02*
Y00627D01*
X01432Y00665D02*
X0147Y00627D01*
X0126Y00665D02*
X01432D01*
X01196Y00601D02*
X0126Y00665D01*
X01196Y0052D02*
Y00601D01*
X002Y0094D02*
X00585D01*
X00164Y00975D02*
X002Y0094D01*
X00164Y00975D02*
Y0124D01*
X01315Y00095D02*
X0132Y0009D01*
X00887Y00335D02*
X00922Y0037D01*
X00887Y00237D02*
Y00335D01*
X00546Y0022D02*
X00761D01*
X00546Y0014D02*
X0076D01*
X00135Y01269D02*
X00164Y0124D01*
X0008Y01269D02*
X00135D01*
X00065Y01284D02*
X0008Y01269D01*
X00585Y00365D02*
Y0094D01*
X00925Y00502D02*
X00983D01*
X00524Y0127D02*
Y01304D01*
X00585Y01365*
X0067*
X00705Y0133*
Y01202D02*
Y0133D01*
X00685Y00408D02*
X00705Y00388D01*
Y00305D02*
Y00388D01*
X00685Y01182D02*
X00705Y01202D01*
X00685Y00408D02*
Y01182D01*
X00705Y00305D02*
X00715Y00295D01*
X01757Y00765D02*
X0188D01*
X01642Y0088D02*
X01757Y00765D01*
X0158Y0088D02*
X01642D01*
X01574Y00885D02*
X0158Y0088D01*
X01574Y00885D02*
Y0107D01*
X0188Y00765D02*
X01905Y0079D01*
X01789Y0069D02*
X01905D01*
X01629Y0085D02*
X01789Y0069D01*
X01545Y0085D02*
X01629D01*
X01544Y0085D02*
X01545Y0085D01*
X01544Y0085D02*
Y0105D01*
X00895Y00485D02*
Y00515D01*
X0085Y0044D02*
X00895Y00485D01*
X00784Y0044D02*
X0085D01*
X00932Y00552D02*
X01021D01*
X00895Y00515D02*
X00932Y00552D01*
X00983Y0037D02*
X01Y00387D01*
X0105*
Y00524*
X01021Y00552D02*
X0105Y00524D01*
X00774Y0045D02*
X00784Y0044D01*
X00762Y0045D02*
X00774D01*
X00755Y00457D02*
X00762Y0045D01*
X00755Y00457D02*
Y0091D01*
X00784Y00939*
X00805*
Y0099*
X00772Y0041D02*
X00784D01*
X00805Y0039*
X00762Y0042D02*
X00772Y0041D01*
X00825Y0054D02*
X00854Y00569D01*
X00805Y0054D02*
X00825D01*
X00805Y0049D02*
Y0054D01*
X00854Y00569D02*
Y00624D01*
X00825Y0064D02*
X00854Y00669D01*
X0081Y0064D02*
X00825D01*
X00805Y00635D02*
X0081Y0064D01*
X00805Y0059D02*
Y00635D01*
X00854Y00624D02*
X00925Y00695D01*
X00805Y0099D02*
X00905Y0089D01*
X01335*
X01404Y01035D02*
X01446Y01077D01*
X01404Y0089D02*
Y01035D01*
X00715Y0042D02*
X00762D01*
X00715D02*
Y0117D01*
X00774Y01229*
Y01239D02*
X00825D01*
X00841Y01223*
X00774Y01229D02*
Y01239D01*
X00841Y01223D02*
X013D01*
X01446Y01077*
X00925Y00695D02*
X01D01*
X01555*
X01855Y0031D02*
X01863Y00318D01*
X01855Y00269D02*
Y0031D01*
X01825Y00357D02*
Y00414D01*
Y00357D02*
X01863Y00318D01*
X01884Y0024D02*
X01905D01*
X01855Y00269D02*
X01884Y0024D01*
X01905Y0019D02*
Y0024D01*
X01158Y00487D02*
X01179D01*
X01196Y0047*
X01Y00645D02*
Y00695D01*
Y00645D02*
X01158Y00487D01*
X01795Y00444D02*
Y00454D01*
Y00444D02*
X01825Y00414D01*
X01555Y00695D02*
X01795Y00454D01*
X00854Y00669D02*
Y00684D01*
X00895Y00725*
X01567*
X01855Y00369D02*
X01884Y0034D01*
X01855Y00369D02*
Y0041D01*
X01884Y0034D02*
X01905D01*
Y0029D02*
Y0034D01*
X01567Y00725D02*
X01825Y00467D01*
X01855Y0041D02*
X01863Y00418D01*
X01825Y00457D02*
Y00467D01*
Y00457D02*
X01863Y00418D01*
X00805Y0069D02*
X0087Y00755D01*
X0158*
X01894Y0044D02*
X01905Y0043D01*
Y0039D02*
Y0043D01*
X01855Y00469D02*
Y00479D01*
X0158Y00755D02*
X01855Y00479D01*
X01884Y0044D02*
X01894D01*
X01855Y00469D02*
X01884Y0044D01*
X00805Y0079D02*
X01605D01*
X01905Y0049*
X00805Y0089D02*
X00875Y0082D01*
X01617*
X01847Y0059*
X01905*
X01205Y0139D02*
X01544Y0105D01*
X00805Y0139D02*
X01205D01*
X00875Y0142D02*
X01217D01*
X00805Y0149D02*
X00875Y0142D01*
X01217D02*
X01418Y01219D01*
X01425*
X01574Y0107*
X00945Y0145D02*
X0124D01*
X00805Y0159D02*
X00945Y0145D01*
X0124D02*
X01563Y01126D01*
X01847Y0089D02*
X01905D01*
X01563Y01126D02*
X01644D01*
X01673Y01064D02*
X01847Y0089D01*
X01644Y01126D02*
X01673Y01097D01*
Y01064D02*
Y01097D01*
X01266Y01625D02*
X01509Y01382D01*
X0121Y01625D02*
X01266D01*
X00805Y0169D02*
X01145D01*
X0121Y01625*
X01673Y01351D02*
X01905Y0112D01*
X01509Y01382D02*
X01661D01*
X01673Y01351D02*
Y0137D01*
X01661Y01382D02*
X01673Y0137D01*
X00115Y0039D02*
X00505D01*
X00115Y0049D02*
X00505D01*
X00115Y0059D02*
X00505D01*
X00115Y0069D02*
X00505D01*
X00115Y0079D02*
X00505D01*
X00115Y0089D02*
X00505D01*
X00335Y01447D02*
Y0176D01*
X00455Y01269D02*
Y01327D01*
Y01269D02*
X00484Y0124D01*
X00335Y01447D02*
X00455Y01327D01*
X00335Y0176D02*
X00464Y01889D01*
X012*
X00554Y01139D02*
Y0121D01*
X00505Y0109D02*
X00554Y01139D01*
X00484Y0124D02*
X00524D01*
X00554Y0121*
X012Y01889D02*
X01214Y01875D01*
X01539*
X0158Y01835D02*
X01699D01*
X01714Y0182D02*
X01905D01*
X01539Y01875D02*
X0158Y01835D01*
X01699D02*
X01714Y0182D01*
X00484Y0121D02*
X00505Y0119D01*
X00425Y01257D02*
X00472Y0121D01*
X00484*
X00115Y0142D02*
X00275D01*
X00425Y01257D02*
Y01269D01*
X00275Y0142D02*
X00425Y01269D01*
X00715Y00295D02*
X00805D01*
X00895Y00385*
Y00395*
X00925Y00425*
X00365Y01459D02*
X00484Y0134D01*
X00365Y01459D02*
Y01747D01*
X00477Y01859*
X00484Y0134D02*
X00505D01*
Y0129D02*
X00524Y0127D01*
X00505Y0129D02*
Y0134D01*
X00477Y01859D02*
X01188D01*
X00925Y00425D02*
Y00502D01*
X00983D02*
Y0052D01*
X01484Y0162D02*
X01905D01*
X01272Y01775D02*
X01328D01*
X01407Y01697*
X01188Y01859D02*
X01272Y01775D01*
X01407Y01697D02*
X0141Y017D01*
X01407Y01697D02*
X01484Y0162D01*
X0141Y017D02*
Y01825D01*
X00421Y01474D02*
Y01557D01*
X00395Y01582D02*
X00421Y01557D01*
Y01474D02*
X00505Y0139D01*
X01316Y01745D02*
X01541Y0152D01*
X00395Y01735D02*
X00489Y01829D01*
X00395Y01582D02*
Y01735D01*
X00489Y01829D02*
X01175D01*
X01259Y01745D02*
X01316D01*
X01175Y01829D02*
X01259Y01745D01*
X01541Y0152D02*
X01905D01*
X0046Y01535D02*
X00505Y0149D01*
X0046Y01535D02*
Y0156D01*
X01303Y01715D02*
X01546Y01472D01*
X00425Y01722D02*
X00502Y01799D01*
X00425Y01595D02*
X0046Y0156D01*
X00425Y01595D02*
Y01722D01*
X00502Y01799D02*
X01163D01*
X01247Y01715D02*
X01303D01*
X01163Y01799D02*
X01247Y01715D01*
X01698Y01472D02*
X01751Y0142D01*
X01546Y01472D02*
X01698D01*
X01751Y0142D02*
X01905D01*
X0046Y01635D02*
Y0166D01*
X00455Y01665D02*
X0046Y0166D01*
X00455Y01665D02*
Y0171D01*
X0046Y01635D02*
X00505Y0159D01*
X01291Y01685D02*
X01534Y01442D01*
X00455Y0171D02*
X00484Y01739D01*
X00512*
X00542Y01769*
X00837D02*
X00857Y0175D01*
X00542Y01769D02*
X00837D01*
X00857Y0175D02*
X0117D01*
X01234Y01685D02*
X01291D01*
X0117Y0175D02*
X01234Y01685D01*
X01733Y01378D02*
X01791Y0132D01*
X01905*
X01534Y01442D02*
X01686D01*
X01733Y01378D02*
Y01395D01*
X01686Y01442D02*
X01733Y01395D01*
X01158Y0172D02*
X01222Y01655D01*
X01278D02*
X01521Y01412D01*
X00505Y0169D02*
X00554Y01739D01*
X00825*
X00845Y0172D02*
X01158D01*
X01222Y01655D02*
X01278D01*
X00825Y01739D02*
X00845Y0172D01*
X01703Y01366D02*
X01849Y0122D01*
X01905*
X01521Y01412D02*
X01673D01*
X01703Y01366D02*
Y01383D01*
X01673Y01412D02*
X01703Y01383D01*
X01166Y0037D02*
X01196D01*
X01145Y00348D02*
X01166Y0037D01*
X01145Y00312D02*
Y00348D01*
X00972Y0014D02*
X01145Y00312D01*
X01205Y0033D02*
X0127D01*
X01017Y00142D02*
X01205Y0033D01*
X01017Y00115D02*
Y00142D01*
X00922Y0037D02*
X00925D01*
Y00382*
X00944Y00402*
X00966*
X00983Y0042*
X01156Y00095D02*
X01315D01*
X00225Y00255D02*
X00235Y00265D01*
X00485*
X00585Y00365*
X00065Y01284D02*
Y01463D01*
X00065Y0094D02*
X00115Y0099D01*
Y0112*
X00065Y01463D02*
X00102Y015D01*
X00115D02*
Y0152D01*
X00164Y01499D02*
Y0164D01*
X00135Y0147D02*
X00164Y01499D01*
X00115Y0147D02*
X00135D01*
X00115Y0142D02*
Y0147D01*
X00135Y01669D02*
X00164Y0164D01*
X00115Y01669D02*
X00135D01*
X00065Y00135D02*
Y0094D01*
X01196Y0037D02*
Y0042D01*
X00115Y0172D02*
X0032Y01925D01*
X0131*
X00983Y0042D02*
Y0047D01*
X01525Y00095D02*
X01625Y00195D01*
Y00275*
X01642Y00292*
Y00372*
X0163Y00384D02*
X01642Y00372D01*
X01612Y00384D02*
X0163D01*
X01595Y00401D02*
X01612Y00384D01*
X01425Y00095D02*
X01475Y00145D01*
X01595Y00401D02*
Y00517D01*
X01512Y006D02*
X01595Y00517D01*
X0147Y00509D02*
X01475D01*
X01525Y00095D02*
X01723D01*
X0132Y0009D02*
X01325Y00095D01*
X0151Y01825D02*
X01665Y01669D01*
X01925*
X01954Y0164*
Y01082D02*
Y0164D01*
X01942Y0107D02*
X01954Y01082D01*
X0187Y0107D02*
X01942D01*
X01789Y0099D02*
X0187Y0107D01*
X01703Y01076D02*
X01789Y0099D01*
X01703Y01076D02*
Y0111D01*
X01656Y01156D02*
X01703Y0111D01*
X01622Y01156D02*
X01656D01*
X01446Y01333D02*
X01622Y01156D01*
X00115Y01669D02*
Y0172D01*
G54D36*
X01525Y00095D03*
X01425D03*
G54D37*
X01325Y00095D03*
G54D38*
X012Y01118D03*
Y01311D03*
G54D39*
X00505Y0169D03*
Y0159D03*
Y0149D03*
Y0139D03*
Y0129D03*
Y0119D03*
Y0109D03*
Y0099D03*
Y0089D03*
Y0079D03*
Y0069D03*
Y0059D03*
Y0049D03*
Y0039D03*
X00805Y0169D03*
Y0159D03*
Y0149D03*
Y0139D03*
Y0129D03*
Y0119D03*
Y0109D03*
Y0099D03*
Y0089D03*
Y0079D03*
Y0069D03*
Y0059D03*
Y0049D03*
X01623Y01077D03*
X01446D03*
Y01333D03*
X01905Y0122D03*
Y0132D03*
Y0142D03*
Y0152D03*
Y0162D03*
Y0172D03*
Y0182D03*
Y0029D03*
Y0039D03*
Y0049D03*
Y0059D03*
Y0069D03*
Y0079D03*
Y0089D03*
X00115Y0172D03*
Y0162D03*
Y0152D03*
Y0142D03*
Y0132D03*
Y0122D03*
Y0112D03*
Y0079D03*
Y0069D03*
Y0059D03*
Y0049D03*
Y0039D03*
Y0029D03*
Y0019D03*
X0131Y01925D03*
X0141Y01825D03*
Y01925D03*
X0151Y01825D03*
Y01925D03*
G54D40*
X00805Y0039D03*
X0131Y01825D03*
G54D41*
X01623Y01333D03*
X01905Y0112D03*
Y0019D03*
X00115Y0182D03*
Y0089D03*
G54D42*
X00615Y0127D03*
X01135Y0061D03*
X00635Y0073D03*
M02*