Removed Pin From Net: NetName=PC6 (R\E\S\E\T\/PCINT14) Pin=R4-1
Removed Pin From Net: NetName=PC6 (R\E\S\E\T\/PCINT14) Pin=SW1-3
Change Component Designator: OldDesignator=D13 NewDesignator=D1
Change Component Designator: OldDesignator=RXD NewDesignator=D2
Added Pin To Net: NetName=NetR4_1 Pin=R4-1
Added Pin To Net: NetName=NetR4_1 Pin=SW1-3
Added Net: Name=NetR4_1
Added Room: Name=Main
Added Room: Name=MCU
