Added Component: Designator=R?(RES 0805/2012)
Add component. Clean all parameters for all variants
Add component (AddParameter): Name = "Part Number"; Value = "RC0805JR-070RL"; VariantName = "[No Variations]"
Add component (AddParameter): Name = "Value"; Value = "1K"; VariantName = "[No Variations]"
Added Component: Designator=R?(RES 0805/2012)
Add component. Clean all parameters for all variants
Add component (AddParameter): Name = "Part Number"; Value = "RC0805JR-070RL"; VariantName = "[No Variations]"
Add component (AddParameter): Name = "Value"; Value = "1K"; VariantName = "[No Variations]"
Added Component: Designator=R?(RES 0805/2012)
Add component. Clean all parameters for all variants
Add component (AddParameter): Name = "Part Number"; Value = "RC0805JR-070RL"; VariantName = "[No Variations]"
Add component (AddParameter): Name = "Value"; Value = "1K"; VariantName = "[No Variations]"
Added Pin To Net: NetName=GND Pin=R?-1
Added Pin To Net: NetName=NetB?_3 Pin=R?-2
Added Pin To Net: NetName=NetB?_3 Pin=R?-2
Added Net: Name=NetB?_3
Added Net: Name=NetB?_6
Added Pin To Net: NetName=VIN Pin=R?-1
Added Net: Name=VIN
Added Member To Class: ClassName=Main Member=Component C? 1uF
Added Member To Class: ClassName=Main Member=Component R? 10K
Added Member To Class: ClassName=Main Member=Component R? 10K
Added Member To Class: ClassName=Main Member=Component R? 1K
